…
    ## # A tibble: 0 × 5
    ## # ℹ 5 variables: series <dbl>, episode <dbl>, baker <chr>, technical <dbl>,
    ## #   result <chr>

Now we have improved the correctness of these dataframe, making
bakers_df the full list of name. Now check the result of **anti_join**
for **results_df** and **bakes_df**

``` r
anti_join(results_df, bakes_df, by = c("baker", "series", "episode"))
```

    ## # A tibble: 588 × 5
    ##    series episode baker    technical result
    ##     <dbl>   <dbl> <chr>        <dbl> <chr> 
    ##  1      1       2 Lea             NA <NA>  
    ##  2      1       2 Mark            NA <NA>  
    ##  3      1       3 Annetha         NA <NA>  
    ##  4      1       3 Lea             NA <NA>  
    ##  5      1       3 Louise          NA <NA>  
    ##  6      1       3 Mark            NA <NA>  
    ##  7      1       4 Annetha         NA <NA>  
    ##  8      1       4 Jonathan        NA <NA>  
    ##  9      1       4 Lea             NA <NA>  
    ## 10      1       4 Louise          NA <NA>  
    ## # ℹ 578 more rows
…
